{
    "SUCCESS": {
        "error": false,
        "name": "SUCCESS",
        "message": "Success.",
        "data": [],
        "status": 200,
        "info": ""
    },
    "FOUND": {
        "error": false,
        "name": "FOUND",
        "message": "Data ditemukan.",
        "data": [],
        "status": 200,
        "info": ""
    },
    "NOT_FOUND": {
        "error": false,
        "name": "NOT_FOUND",
        "message": "Data tidak ditemukan.",
        "data": null,
        "status": 404,
        "info": ""
    },
    "INSERT": {
        "error": false,
        "name": "INSERT",
        "message": "Successfully Insert.",
        "data": null,
        "status": 200,
        "info": ""
    },
    "UPDATE": {
        "error": false,
        "name": "UPDATE",
        "message": "Successfully Update.",
        "data": null,
        "status": 200,
        "info": ""
    },
    "DELETE": {
        "error": false,
        "name": "DELETE",
        "message": "Successfully Delete.",
        "data": {},
        "status": 200,
        "info": ""
    },
    "UNAUTHENCTICATION": {
        "error": false,
        "name": "UNAUTHENCTICATION",
        "message": "Unauthentication.",
        "data": null,
        "status": 401,
        "info": ""
    },
    "UNAUTHORIZATION": {
        "error": false,
        "name": "UNAUTHORIZATION",
        "message": "Unauthorization.",
        "data": {},
        "status": 401,
        "info": ""
    },
    "ERR": {
        "error": true,
        "name": "ERR",
        "message": "Error.",
        "data": null,
        "status": 400,
        "info": ""
    },
    "BAD_GATEWAY": {
        "error": true,
        "name": "BAD_GATEWAY",
        "message": "Bad Gateway.",
        "data": null,
        "status": 500,
        "info": ""
    }
}